{
    "GottaGoFast": {
        "checkpoints": [
            {
                "steps": 102600,
                "file_path": "results\\GGF1\\GottaGoFast\\GottaGoFast-102600.onnx",
                "reward": null,
                "creation_time": 1616429861.0521033
            },
            {
                "steps": 113674,
                "file_path": "results\\GGF1\\GottaGoFast\\GottaGoFast-113674.onnx",
                "reward": null,
                "creation_time": 1616457724.5129116
            }
        ],
        "final_checkpoint": {
            "steps": 113674,
            "file_path": "results\\GGF1\\GottaGoFast.onnx",
            "reward": null,
            "creation_time": 1616457724.5129116
        }
    },
    "metadata": {
        "stats_format_version": "0.2.0",
        "mlagents_version": "0.25.0",
        "torch_version": "1.8.0+cpu"
    }
}