{
    "GottaGoFast": {
        "checkpoints": [
            {
                "steps": 35425,
                "file_path": "results\\GottaGoFast1\\GottaGoFast\\GottaGoFast-35425.onnx",
                "reward": -0.8812154696132597,
                "creation_time": 1616428272.8853176
            },
            {
                "steps": 38962,
                "file_path": "results\\GottaGoFast1\\GottaGoFast\\GottaGoFast-38962.onnx",
                "reward": -0.9598214285714286,
                "creation_time": 1616428329.5988834
            }
        ],
        "final_checkpoint": {
            "steps": 38962,
            "file_path": "results\\GottaGoFast1\\GottaGoFast.onnx",
            "reward": -0.9598214285714286,
            "creation_time": 1616428329.5988834
        }
    },
    "metadata": {
        "stats_format_version": "0.2.0",
        "mlagents_version": "0.25.0",
        "torch_version": "1.8.0+cpu"
    }
}