{
    "name": "root",
    "gauges": {
        "GottaGoFast.Policy.Entropy.mean": {
            "value": 0.46373045444488525,
            "min": 0.46373045444488525,
            "max": 1.6509225368499756,
            "count": 7
        },
        "GottaGoFast.Policy.Entropy.sum": {
            "value": 4845.51953125,
            "min": 4845.51953125,
            "max": 17696.23828125,
            "count": 7
        },
        "GottaGoFast.Environment.EpisodeLength.mean": {
            "value": 69.79194630872483,
            "min": 32.436708860759495,
            "max": 114.32530120481928,
            "count": 7
        },
        "GottaGoFast.Environment.EpisodeLength.sum": {
            "value": 10399.0,
            "min": 9489.0,
            "max": 10443.0,
            "count": 7
        },
        "GottaGoFast.Policy.ExtrinsicValueEstimate.mean": {
            "value": 0.0379595123231411,
            "min": -1.080352783203125,
            "max": 0.0379595123231411,
            "count": 7
        },
        "GottaGoFast.Policy.ExtrinsicValueEstimate.sum": {
            "value": 7.819659233093262,
            "min": -204.2894744873047,
            "max": 7.819659233093262,
            "count": 7
        },
        "GottaGoFast.Environment.CumulativeReward.mean": {
            "value": 0.13021582868888223,
            "min": -0.8884488390912317,
            "max": 0.13021582868888223,
            "count": 7
        },
        "GottaGoFast.Environment.CumulativeReward.sum": {
            "value": 18.10000018775463,
            "min": -269.1999982446432,
            "max": 18.10000018775463,
            "count": 7
        },
        "GottaGoFast.Policy.ExtrinsicReward.mean": {
            "value": 0.13021582868888223,
            "min": -0.8884488390912317,
            "max": 0.13021582868888223,
            "count": 7
        },
        "GottaGoFast.Policy.ExtrinsicReward.sum": {
            "value": 18.10000018775463,
            "min": -269.1999982446432,
            "max": 18.10000018775463,
            "count": 7
        },
        "GottaGoFast.Losses.PolicyLoss.mean": {
            "value": 0.2469438599300158,
            "min": 0.24652870451548498,
            "max": 0.25740872996163344,
            "count": 7
        },
        "GottaGoFast.Losses.PolicyLoss.sum": {
            "value": 2.7163824592301737,
            "min": 2.0359500616991193,
            "max": 4.6333571393094015,
            "count": 7
        },
        "GottaGoFast.Losses.ValueLoss.mean": {
            "value": 0.7059191211997583,
            "min": 0.027171696832055434,
            "max": 1.428692334905088,
            "count": 7
        },
        "GottaGoFast.Losses.ValueLoss.sum": {
            "value": 7.765110333197341,
            "min": 0.25494811695297004,
            "max": 11.429538679240704,
            "count": 7
        },
        "GottaGoFast.Policy.LearningRate.mean": {
            "value": 0.00026091312211987263,
            "min": 0.00026091312211987263,
            "max": 0.000297500267499911,
            "count": 7
        },
        "GottaGoFast.Policy.LearningRate.sum": {
            "value": 0.0028700443433185992,
            "min": 0.0021370416876528,
            "max": 0.005355004814998399,
            "count": 7
        },
        "GottaGoFast.Policy.Epsilon.mean": {
            "value": 0.18697103636363635,
            "min": 0.18697103636363635,
            "max": 0.19916675555555555,
            "count": 7
        },
        "GottaGoFast.Policy.Epsilon.sum": {
            "value": 2.0566814,
            "min": 1.5123472000000002,
            "max": 3.5850016,
            "count": 7
        },
        "GottaGoFast.Policy.Beta.mean": {
            "value": 0.0004361580781818182,
            "min": 0.0004361580781818182,
            "max": 0.0004959171022222223,
            "count": 7
        },
        "GottaGoFast.Policy.Beta.sum": {
            "value": 0.00479773886,
            "min": 0.00357050128,
            "max": 0.008926507840000002,
            "count": 7
        },
        "GottaGoFast.IsTraining.mean": {
            "value": 1.0,
            "min": 1.0,
            "max": 1.0,
            "count": 7
        },
        "GottaGoFast.IsTraining.sum": {
            "value": 1.0,
            "min": 1.0,
            "max": 1.0,
            "count": 7
        }
    },
    "metadata": {
        "timer_format_version": "0.1.0",
        "start_time_seconds": "1616461490",
        "python_version": "3.9.2 (tags/v3.9.2:1a79785, Feb 19 2021, 13:44:55) [MSC v.1928 64 bit (AMD64)]",
        "command_line_arguments": "C:\\Users\\Lucas\\AppData\\Local\\Programs\\Python\\Python39\\Scripts\\mlagents-learn config\\baseMLConfig.yaml --run-id=GGF3 --force",
        "mlagents_version": "0.25.0",
        "mlagents_envs_version": "0.25.0",
        "communication_protocol_version": "1.5.0",
        "pytorch_version": "1.8.0+cpu",
        "numpy_version": "1.20.1",
        "end_time_seconds": "1616461765"
    },
    "total": 274.9067748,
    "count": 1,
    "self": 0.007962999999961085,
    "children": {
        "run_training.setup": {
            "total": 0.1430518999999999,
            "count": 1,
            "self": 0.1430518999999999
        },
        "TrainerController.start_learning": {
            "total": 274.75575990000004,
            "count": 1,
            "self": 1.324837300001093,
            "children": {
                "TrainerController._reset_env": {
                    "total": 3.9986005000000002,
                    "count": 1,
                    "self": 3.9986005000000002
                },
                "TrainerController.advance": {
                    "total": 269.18542739999896,
                    "count": 9479,
                    "self": 0.15800629999961302,
                    "children": {
                        "env_step": {
                            "total": 269.02742109999934,
                            "count": 9479,
                            "self": 243.80121409999737,
                            "children": {
                                "SubprocessEnvManager._take_step": {
                                    "total": 25.07372600000013,
                                    "count": 9479,
                                    "self": 0.7007887999991382,
                                    "children": {
                                        "TorchPolicy.evaluate": {
                                            "total": 24.37293720000099,
                                            "count": 8524,
                                            "self": 5.0559637000014135,
                                            "children": {
                                                "TorchPolicy.sample_actions": {
                                                    "total": 19.316973499999577,
                                                    "count": 8524,
                                                    "self": 19.316973499999577
                                                }
                                            }
                                        }
                                    }
                                },
                                "workers": {
                                    "total": 0.15248100000184817,
                                    "count": 9478,
                                    "self": 0.0,
                                    "children": {
                                        "worker_root": {
                                            "total": 269.0023511000003,
                                            "count": 9478,
                                            "is_parallel": true,
                                            "self": 67.5074167999978,
                                            "children": {
                                                "steps_from_proto": {
                                                    "total": 0.0008042000000001437,
                                                    "count": 1,
                                                    "is_parallel": true,
                                                    "self": 0.0003289000000004094,
                                                    "children": {
                                                        "_process_rank_one_or_two_observation": {
                                                            "total": 0.00047529999999973427,
                                                            "count": 4,
                                                            "is_parallel": true,
                                                            "self": 0.00047529999999973427
                                                        }
                                                    }
                                                },
                                                "UnityEnvironment.step": {
                                                    "total": 201.49413010000248,
                                                    "count": 9478,
                                                    "is_parallel": true,
                                                    "self": 0.9986209000009296,
                                                    "children": {
                                                        "UnityEnvironment._generate_step_input": {
                                                            "total": 4.3103327000019,
                                                            "count": 9478,
                                                            "is_parallel": true,
                                                            "self": 4.3103327000019
                                                        },
                                                        "communicator.exchange": {
                                                            "total": 191.76964920000023,
                                                            "count": 9478,
                                                            "is_parallel": true,
                                                            "self": 191.76964920000023
                                                        },
                                                        "steps_from_proto": {
                                                            "total": 4.415527299999415,
                                                            "count": 9478,
                                                            "is_parallel": true,
                                                            "self": 2.2254950999980503,
                                                            "children": {
                                                                "_process_rank_one_or_two_observation": {
                                                                    "total": 2.1900322000013643,
                                                                    "count": 37912,
                                                                    "is_parallel": true,
                                                                    "self": 2.1900322000013643
                                                                }
                                                            }
                                                        }
                                                    }
                                                }
                                            }
                                        }
                                    }
                                }
                            }
                        }
                    }
                },
                "trainer_threads": {
                    "total": 3.6799999975301034e-05,
                    "count": 1,
                    "self": 3.6799999975301034e-05,
                    "children": {
                        "thread_root": {
                            "total": 0.0,
                            "count": 0,
                            "is_parallel": true,
                            "self": 0.0,
                            "children": {
                                "trainer_advance": {
                                    "total": 268.1964193,
                                    "count": 207,
                                    "is_parallel": true,
                                    "self": 0.0,
                                    "children": {
                                        "process_trajectory": {
                                            "total": 12.37973849999989,
                                            "count": 208,
                                            "is_parallel": true,
                                            "self": 12.37973849999989
                                        },
                                        "_update_policy": {
                                            "total": 255.96164379999993,
                                            "count": 85,
                                            "is_parallel": true,
                                            "self": 15.857110600001363,
                                            "children": {
                                                "TorchPPOOptimizer.update": {
                                                    "total": 240.10453319999857,
                                                    "count": 22691,
                                                    "is_parallel": true,
                                                    "self": 240.10453319999857
                                                }
                                            }
                                        }
                                    }
                                }
                            }
                        }
                    }
                },
                "TrainerController._save_models": {
                    "total": 0.24685790000000907,
                    "count": 1,
                    "self": 0.020484900000042217,
                    "children": {
                        "RLTrainer._checkpoint": {
                            "total": 0.22637299999996685,
                            "count": 1,
                            "self": 0.22637299999996685
                        }
                    }
                }
            }
        }
    }
}