{
    "GottaGoFast": {
        "checkpoints": [
            {
                "steps": 3004,
                "file_path": "results\\ppo\\GottaGoFast\\GottaGoFast-3004.onnx",
                "reward": -0.9626865671641791,
                "creation_time": 1616370068.7605352
            },
            {
                "steps": 3378,
                "file_path": "results\\ppo\\GottaGoFast\\GottaGoFast-3378.onnx",
                "reward": -0.8461538461538461,
                "creation_time": 1616370146.589822
            },
            {
                "steps": 27098,
                "file_path": "results\\ppo\\GottaGoFast\\GottaGoFast-27098.onnx",
                "reward": -0.9923664122137404,
                "creation_time": 1616370542.3610137
            }
        ],
        "final_checkpoint": {
            "steps": 27098,
            "file_path": "results\\ppo\\GottaGoFast.onnx",
            "reward": -0.9923664122137404,
            "creation_time": 1616370542.3610137
        }
    },
    "metadata": {
        "stats_format_version": "0.2.0",
        "mlagents_version": "0.25.0",
        "torch_version": "1.8.0+cpu"
    }
}