{
    "name": "root",
    "gauges": {
        "GottaGoFast.Policy.Entropy.mean": {
            "value": 0.9429448246955872,
            "min": 0.8883911371231079,
            "max": 2.1366653442382812,
            "count": 18
        },
        "GottaGoFast.Policy.Entropy.sum": {
            "value": 9765.13671875,
            "min": 8569.6953125,
            "max": 24101.5859375,
            "count": 18
        },
        "GottaGoFast.Policy.ExtrinsicValueEstimate.mean": {
            "value": 0.03758756071329117,
            "min": -0.06604522466659546,
            "max": 0.10199592262506485,
            "count": 18
        },
        "GottaGoFast.Policy.ExtrinsicValueEstimate.sum": {
            "value": 6.577823162078857,
            "min": -11.029552459716797,
            "max": 17.951282501220703,
            "count": 18
        },
        "GottaGoFast.Losses.PolicyLoss.mean": {
            "value": 0.2529448661471609,
            "min": 0.2443244129657023,
            "max": 0.2561022610604697,
            "count": 18
        },
        "GottaGoFast.Losses.PolicyLoss.sum": {
            "value": 2.276503795324448,
            "min": 1.9944572330703192,
            "max": 4.669760407803882,
            "count": 18
        },
        "GottaGoFast.Losses.ValueLoss.mean": {
            "value": 0.016320150856945284,
            "min": 0.0042618212218169405,
            "max": 0.02149315875930815,
            "count": 18
        },
        "GottaGoFast.Losses.ValueLoss.sum": {
            "value": 0.14688135771250754,
            "min": 0.046804041536075036,
            "max": 0.19343842883377335,
            "count": 18
        },
        "GottaGoFast.Policy.LearningRate.mean": {
            "value": 0.0002894809635063466,
            "min": 0.0002894809635063466,
            "max": 0.00029979325585838837,
            "count": 18
        },
        "GottaGoFast.Policy.LearningRate.sum": {
            "value": 0.0026053286715571194,
            "min": 0.0023304022431992594,
            "max": 0.005696071861309379,
            "count": 18
        },
        "GottaGoFast.Policy.Epsilon.mean": {
            "value": 0.19649365333333335,
            "min": 0.19649365333333335,
            "max": 0.19993108526315792,
            "count": 18
        },
        "GottaGoFast.Policy.Epsilon.sum": {
            "value": 1.7684428800000003,
            "min": 1.57680074,
            "max": 3.7986906200000004,
            "count": 18
        },
        "GottaGoFast.Policy.Beta.mean": {
            "value": 0.0004828189013333333,
            "min": 0.0004828189013333333,
            "max": 0.0004996623177894736,
            "count": 18
        },
        "GottaGoFast.Policy.Beta.sum": {
            "value": 0.004345370112,
            "min": 0.003886323626,
            "max": 0.009493584037999998,
            "count": 18
        },
        "GottaGoFast.Environment.EpisodeLength.mean": {
            "value": 168.9672131147541,
            "min": 164.30645161290323,
            "max": 425.57142857142856,
            "count": 18
        },
        "GottaGoFast.Environment.EpisodeLength.sum": {
            "value": 10307.0,
            "min": 8937.0,
            "max": 10891.0,
            "count": 18
        },
        "GottaGoFast.Environment.CumulativeReward.mean": {
            "value": 0.08000000678002835,
            "min": -0.3639999985694885,
            "max": 0.18181818588213486,
            "count": 18
        },
        "GottaGoFast.Environment.CumulativeReward.sum": {
            "value": 4.800000406801701,
            "min": -9.099999964237213,
            "max": 5.900000721216202,
            "count": 18
        },
        "GottaGoFast.Policy.ExtrinsicReward.mean": {
            "value": 0.08000000678002835,
            "min": -0.3639999985694885,
            "max": 0.18181818588213486,
            "count": 18
        },
        "GottaGoFast.Policy.ExtrinsicReward.sum": {
            "value": 4.800000406801701,
            "min": -9.099999964237213,
            "max": 5.900000721216202,
            "count": 18
        },
        "GottaGoFast.IsTraining.mean": {
            "value": 1.0,
            "min": 1.0,
            "max": 1.0,
            "count": 18
        },
        "GottaGoFast.IsTraining.sum": {
            "value": 1.0,
            "min": 1.0,
            "max": 1.0,
            "count": 18
        }
    },
    "metadata": {
        "timer_format_version": "0.1.0",
        "start_time_seconds": "1616683707",
        "python_version": "3.7.3 (v3.7.3:ef4ec6ed12, Mar 25 2019, 22:22:05) [MSC v.1916 64 bit (AMD64)]",
        "command_line_arguments": "C:\\Users\\IES SABADELL\\AppData\\Local\\Programs\\Python\\Python37\\Scripts\\mlagents-learn config\\baseMLConfig.yaml --run-id=Final4 --force",
        "mlagents_version": "0.25.0",
        "mlagents_envs_version": "0.25.0",
        "communication_protocol_version": "1.5.0",
        "pytorch_version": "1.8.0+cpu",
        "numpy_version": "1.20.1",
        "end_time_seconds": "1616684314"
    },
    "total": 606.7847435,
    "count": 1,
    "self": 0.007862499999987449,
    "children": {
        "run_training.setup": {
            "total": 0.1131627999999999,
            "count": 1,
            "self": 0.1131627999999999
        },
        "TrainerController.start_learning": {
            "total": 606.6637182,
            "count": 1,
            "self": 1.6278418000085821,
            "children": {
                "TrainerController._reset_env": {
                    "total": 2.5097151,
                    "count": 1,
                    "self": 2.5097151
                },
                "TrainerController.advance": {
                    "total": 602.3809984999914,
                    "count": 61467,
                    "self": 0.8121614999854501,
                    "children": {
                        "env_step": {
                            "total": 601.5688370000059,
                            "count": 61467,
                            "self": 458.2326828000023,
                            "children": {
                                "SubprocessEnvManager._take_step": {
                                    "total": 142.60730720000538,
                                    "count": 61467,
                                    "self": 2.729369700000319,
                                    "children": {
                                        "TorchPolicy.evaluate": {
                                            "total": 139.87793750000506,
                                            "count": 61467,
                                            "self": 28.258822800009554,
                                            "children": {
                                                "TorchPolicy.sample_actions": {
                                                    "total": 111.6191146999955,
                                                    "count": 61467,
                                                    "self": 111.6191146999955
                                                }
                                            }
                                        }
                                    }
                                },
                                "workers": {
                                    "total": 0.7288469999982738,
                                    "count": 61466,
                                    "self": 0.0,
                                    "children": {
                                        "worker_root": {
                                            "total": 601.9744809999895,
                                            "count": 61466,
                                            "is_parallel": true,
                                            "self": 242.09725759998042,
                                            "children": {
                                                "steps_from_proto": {
                                                    "total": 0.0004672999999999483,
                                                    "count": 1,
                                                    "is_parallel": true,
                                                    "self": 0.00024379999999979418,
                                                    "children": {
                                                        "_process_rank_one_or_two_observation": {
                                                            "total": 0.00022350000000015413,
                                                            "count": 4,
                                                            "is_parallel": true,
                                                            "self": 0.00022350000000015413
                                                        }
                                                    }
                                                },
                                                "UnityEnvironment.step": {
                                                    "total": 359.87675610000906,
                                                    "count": 61466,
                                                    "is_parallel": true,
                                                    "self": 5.502822200017704,
                                                    "children": {
                                                        "UnityEnvironment._generate_step_input": {
                                                            "total": 5.684229400003412,
                                                            "count": 61466,
                                                            "is_parallel": true,
                                                            "self": 5.684229400003412
                                                        },
                                                        "communicator.exchange": {
                                                            "total": 325.2678910999866,
                                                            "count": 61466,
                                                            "is_parallel": true,
                                                            "self": 325.2678910999866
                                                        },
                                                        "steps_from_proto": {
                                                            "total": 23.42181340000134,
                                                            "count": 61466,
                                                            "is_parallel": true,
                                                            "self": 12.90917280000453,
                                                            "children": {
                                                                "_process_rank_one_or_two_observation": {
                                                                    "total": 10.51264059999681,
                                                                    "count": 245864,
                                                                    "is_parallel": true,
                                                                    "self": 10.51264059999681
                                                                }
                                                            }
                                                        }
                                                    }
                                                }
                                            }
                                        }
                                    }
                                }
                            }
                        }
                    }
                },
                "trainer_threads": {
                    "total": 3.2000000032894604e-05,
                    "count": 1,
                    "self": 3.2000000032894604e-05,
                    "children": {
                        "thread_root": {
                            "total": 0.0,
                            "count": 0,
                            "is_parallel": true,
                            "self": 0.0,
                            "children": {
                                "trainer_advance": {
                                    "total": 604.0003231999993,
                                    "count": 643,
                                    "is_parallel": true,
                                    "self": 0.033052099999167694,
                                    "children": {
                                        "process_trajectory": {
                                            "total": 22.08529049999988,
                                            "count": 643,
                                            "is_parallel": true,
                                            "self": 22.08529049999988
                                        },
                                        "_update_policy": {
                                            "total": 581.8819806000002,
                                            "count": 172,
                                            "is_parallel": true,
                                            "self": 40.331461400003036,
                                            "children": {
                                                "TorchPPOOptimizer.update": {
                                                    "total": 541.5505191999972,
                                                    "count": 54756,
                                                    "is_parallel": true,
                                                    "self": 541.5505191999972
                                                }
                                            }
                                        }
                                    }
                                }
                            }
                        }
                    }
                },
                "TrainerController._save_models": {
                    "total": 0.14513079999994716,
                    "count": 1,
                    "self": 0.008518999999978405,
                    "children": {
                        "RLTrainer._checkpoint": {
                            "total": 0.13661179999996875,
                            "count": 1,
                            "self": 0.13661179999996875
                        }
                    }
                }
            }
        }
    }
}